Project2
…
    user_id = `User ID`,
    device_model = `Device Model`,
    operating_system = `Operating System`,
    app_usage_time = `App Usage Time (min/day)`,
    screen_on_time = `Screen On Time (hours/day)`,
    battery_drain = `Battery Drain (mAh/day)`,
    num_app_installed = `Number of Apps Installed`,
    data_usage = `Data Usage (MB/day)`,
    age = Age,
    gender = Gender,
    user_behavior_class = `User Behavior Class`
  )
mobile_device_data

# A tibble: 700 × 11
   user_id device_model       operating_system app_usage_time screen_on_time
     <dbl> <chr>              <chr>                     <dbl>          <dbl>
 1       1 Google Pixel 5     Android                     393            6.4
 2       2 OnePlus 9          Android                     268            4.7
 3       3 Xiaomi Mi 11       Android                     154            4  
 4       4 Google Pixel 5     Android                     239            4.8
 5       5 iPhone 12          iOS                         187            4.3
 6       6 Google Pixel 5     Android                      99            2  
 7       7 Samsung Galaxy S21 Android                     350            7.3
 8       8 OnePlus 9          Android                     543           11.4
 9       9 Samsung Galaxy S21 Android                     340            7.7
10      10 iPhone 12          iOS                         424            6.6
# ℹ 690 more rows
# ℹ 6 more variables: battery_drain <dbl>, num_app_installed <dbl>,
#   data_usage <dbl>, age <dbl>, gender <chr>, user_behavior_class <dbl>
…
